\relax 
\providecommand\hyper@newdestlabel[2]{}
\providecommand\HyperFirstAtBeginDocument{\AtBeginDocument}
\HyperFirstAtBeginDocument{\ifx\hyper@anchor\@undefined
\global\let\oldcontentsline\contentsline
\gdef\contentsline#1#2#3#4{\oldcontentsline{#1}{#2}{#3}}
\global\let\oldnewlabel\newlabel
\gdef\newlabel#1#2{\newlabelxx{#1}#2}
\gdef\newlabelxx#1#2#3#4#5#6{\oldnewlabel{#1}{{#2}{#3}}}
\AtEndDocument{\ifx\hyper@anchor\@undefined
\let\contentsline\oldcontentsline
\let\newlabel\oldnewlabel
\fi}
\fi}
\global\let\hyper@last\relax 
\gdef\HyperFirstAtBeginDocument#1{#1}
\providecommand\HyField@AuxAddToFields[1]{}
\providecommand\HyField@AuxAddToCoFields[2]{}
\citation{Walker:2000:LPP:974305.974333,SwertsLH00,SchmittSMLS10,PaekH04}
\citation{SwertsLH00}
\citation{SCHMITT12.333}
\citation{schmitt2011a}
\citation{raux101744}
\citation{black101743}
\citation{spedialD31}
\newlabel{s:intro}{{1.}{1}{Introduction}{section.1}{}}
\citation{lopes3993}
\newlabel{s:datasets}{{2.}{2}{Datasets}{section.2}{}}
\newlabel{ss:datasets_letsgo}{{2.1.}{2}{Let's Go}{subsection.2.1}{}}
\newlabel{ss:datasets_movie}{{2.2.}{2}{Movie ticketing}{subsection.2.2}{}}
\newlabel{sec:scheme}{{3.}{2}{Annotation scheme}{section.3}{}}
\citation{verve04}
\citation{spedial}
\citation{turn}
\citation{palogiannidi2015}
\citation{malandrakis13}
\citation{harris54}
\citation{lee04}
\citation{open10}
\newlabel{tab:Miscommunication}{{1}{3}{Example when label 3 was attribute to turn S3 in Let's Go data}{table.1}{}}
\newlabel{sec:expResults}{{4.}{3}{Experimental Procedure and Results}{section.4}{}}
\newlabel{sss:movie_res}{{4.1.}{3}{Anger detection in the Movie Ticketing dataset}{subsection.4.1}{}}
\newlabel{eq:aff}{{1}{3}{Text-based system}{equation.4.1}{}}
\citation{Meinedo:2011}
\citation{Meinedo:2011}
\citation{hermansky1992rasta}
\citation{kingsbury1998msg}
\newlabel{tab:distribution}{{2}{4}{Distribution of the data with the respect to the annotations performed}{table.2}{}}
\newlabel{tab:movies}{{3}{4}{Movie ticketing dataset: ``angry'' vs. ``not angry'' classification}{table.3}{}}
\citation{open10}
\citation{dehak2009}
\citation{meena3995}
\citation{meena3995}
\citation{schmitt2011a}
\citation{hall101538}
\citation{scikit-learn}
\citation{meena3995}
\citation{hall101538}
\citation{meena3995}
\citation{scikit-learn}
\citation{CC01a}
\citation{meena3995}
\citation{meena3995}
\citation{martinovsky100287}
\bibstyle{lrec2006}
\bibdata{lrec_spedial}
\bibcite{black101743}{\citename {Black \bgroup et al.\egroup }2010}
\bibcite{CC01a}{\citename {Chang and Lin}2011}
\bibcite{dehak2009}{\citename {Dehak \bgroup et al.\egroup }2009}
\bibcite{open10}{\citename {Eyben \bgroup et al.\egroup }2010}
\bibcite{hall101538}{\citename {Hall \bgroup et al.\egroup }2009}
\bibcite{harris54}{\citename {Harris}1954}
\bibcite{hermansky1992rasta}{\citename {Hermansky \bgroup et al.\egroup }1992}
\bibcite{kingsbury1998msg}{\citename {Kingsbury \bgroup et al.\egroup }1998}
\newlabel{sec:conclusions}{{5.}{6}{Conclusions}{section.5}{}}
\newlabel{sec:futureWork}{{6.}{6}{Future Work}{section.6}{}}
\bibcite{lee04}{\citename {Lee \bgroup et al.\egroup }2004}
\bibcite{lopes3993}{\citename {Lopes \bgroup et al.\egroup }2015}
\bibcite{malandrakis13}{\citename {Malandrakis \bgroup et al.\egroup }2013}
\bibcite{martinovsky100287}{\citename {Martinovsky and Traum}2003}
\bibcite{meena3995}{\citename {Meena \bgroup et al.\egroup }2015}
\bibcite{Meinedo:2011}{\citename {Meinedo and Trancoso}2011}
\bibcite{PaekH04}{\citename {Paek and Horvitz}2004}
\bibcite{palogiannidi2015}{\citename {Palogiannidi \bgroup et al.\egroup }2015}
\bibcite{scikit-learn}{\citename {Pedregosa \bgroup et al.\egroup }2011}
\bibcite{raux101744}{\citename {Raux \bgroup et al.\egroup }2005}
\bibcite{SchmittSMLS10}{\citename {Schmitt \bgroup et al.\egroup }2010}
\bibcite{schmitt2011a}{\citename {Schmitt \bgroup et al.\egroup }2011}
\bibcite{SCHMITT12.333}{\citename {Schmitt \bgroup et al.\egroup }2012}
\bibcite{spedial}{\citename {SpeDial}2015a}
\bibcite{spedialD31}{\citename {SpeDial}2015b}
\bibcite{SwertsLH00}{\citename {Swerts \bgroup et al.\egroup }2000}
\bibcite{turn}{\citename {Turney and Littman}2002}
\bibcite{verve04}{\citename {Ververidis \bgroup et al.\egroup }2004}
\bibcite{Walker:2000:LPP:974305.974333}{\citename {Walker \bgroup et al.\egroup }2000}
