\relax 
\citation{Walker:2000:LPP:974305.974333,PaekH04,SchmittSMLS10,SwertsLH00}
\citation{SwertsLH00}
\citation{SCHMITT12.333}
\citation{schmitt2011a}
\citation{raux101744}
\newlabel{s:intro}{{1.}{1}}
\newlabel{sec:scheme}{{2.}{1}}
\citation{verve04}
\citation{open10}
\citation{spedial}
\citation{turn}
\citation{palogiannidi2015}
\newlabel{tab:Miscommunication}{{1}{2}}
\newlabel{s:datasets}{{3.}{2}}
\newlabel{ss:datasets_letsgo}{{3.1.}{2}}
\newlabel{ss:datasets_movie}{{3.2.}{2}}
\newlabel{sss:movie_res}{{4.1.}{2}}
\citation{meena3995}
\citation{hall101538}
\citation{scikit-learn}
\citation{CC01a}
\bibstyle{lrec2006}
\bibdata{lrec_spedial}
\newlabel{main:ref}{{7.}{3}}
